%YAML 1.1
%TAG !u! tag:unity3d.com,2011:
--- !u!114 &11400000
MonoBehaviour:
  m_ObjectHideFlags: 0
  m_CorrespondingSourceObject: {fileID: 0}
  m_PrefabInstance: {fileID: 0}
  m_PrefabAsset: {fileID: 0}
  m_GameObject: {fileID: 0}
  m_Enabled: 1
  m_EditorHideFlags: 0
  m_Script: {fileID: 11500000, guid: dc24d90ee8286524ea3489dcf2766f3f, type: 3}
  m_Name: ManualTest
  m_EditorClassIdentifier: 
  name: ManualTest
  sprite: {fileID: 21300000, guid: 2dafe0852f27d6c40bae410930d8bed4, type: 3}
  m_craftBook: {fileID: 11400000, guid: 3493bf9648bd69244bf42bcb874da522, type: 2}
  m_PosDesbloquejar: 7
