%YAML 1.1
%TAG !u! tag:unity3d.com,2011:
--- !u!114 &11400000
MonoBehaviour:
  m_ObjectHideFlags: 0
  m_CorrespondingSourceObject: {fileID: 0}
  m_PrefabInstance: {fileID: 0}
  m_PrefabAsset: {fileID: 0}
  m_GameObject: {fileID: 0}
  m_Enabled: 1
  m_EditorHideFlags: 0
  m_Script: {fileID: 11500000, guid: 0217d32b333ed8440bd3402f8ba96974, type: 3}
  m_Name: Hacha
  m_EditorClassIdentifier: 
  name: Hacha
  sprite: {fileID: 21300000, guid: b262ad7e3b9cfe04dadfb4c189a58b6b, type: 3}
  energiaQueGasta: 3
  m_GameEvent: {fileID: 11400000, guid: cba31a98de6f4eb49b1dfe22318476f9, type: 2}
  m_WasteEnergy: {fileID: 11400000, guid: 97d8cfce724eb8f4cac3a3c20d9ed464, type: 2}
  "da\xF1o": 5
