%YAML 1.1
%TAG !u! tag:unity3d.com,2011:
--- !u!114 &11400000
MonoBehaviour:
  m_ObjectHideFlags: 0
  m_CorrespondingSourceObject: {fileID: 0}
  m_PrefabInstance: {fileID: 0}
  m_PrefabAsset: {fileID: 0}
  m_GameObject: {fileID: 0}
  m_Enabled: 1
  m_EditorHideFlags: 0
  m_Script: {fileID: 11500000, guid: 8caeec09b4c2d2143a72e4b9f7e079c2, type: 3}
  m_Name: Regadera
  m_EditorClassIdentifier: 
  name: Regadera
  sprite: {fileID: 21300000, guid: 8db3a1796671d2040905f74d6645fe69, type: 3}
  energiaQueGasta: 1
  m_TileTarget: {fileID: 11400000, guid: 14a3e6ea14f8bfd43a26d8c9a5762c9b, type: 2}
  m_TileNew: {fileID: 11400000, guid: 472f9884e75cf684d8deedab352d52ec, type: 2}
  m_Water: {fileID: 11400000, guid: bc17827122724e54589e4e3dde7ae89c, type: 2}
  m_WasteEnergy: {fileID: 11400000, guid: 97d8cfce724eb8f4cac3a3c20d9ed464, type: 2}
  MaxWater: 50
  water: 50
