%YAML 1.1
%TAG !u! tag:unity3d.com,2011:
--- !u!1 &3453134041058585862
GameObject:
  m_ObjectHideFlags: 0
  m_CorrespondingSourceObject: {fileID: 0}
  m_PrefabInstance: {fileID: 0}
  m_PrefabAsset: {fileID: 0}
  serializedVersion: 6
  m_Component:
  - component: {fileID: 5695106594097785386}
  - component: {fileID: 5237697896198751018}
  - component: {fileID: 8633488728181342227}
  - component: {fileID: -628128730671719249}
  - component: {fileID: 242002268098129628}
  m_Layer: 12
  m_Name: Cofre
  m_TagString: Untagged
  m_Icon: {fileID: 0}
  m_NavMeshLayer: 0
  m_StaticEditorFlags: 0
  m_IsActive: 1
--- !u!4 &5695106594097785386
Transform:
  m_ObjectHideFlags: 0
  m_CorrespondingSourceObject: {fileID: 0}
  m_PrefabInstance: {fileID: 0}
  m_PrefabAsset: {fileID: 0}
  m_GameObject: {fileID: 3453134041058585862}
  m_LocalRotation: {x: 0, y: 0, z: 0, w: 1}
  m_LocalPosition: {x: 0, y: 0, z: 0}
  m_LocalScale: {x: 1, y: 1, z: 1}
  m_ConstrainProportionsScale: 0
  m_Children: []
  m_Father: {fileID: 0}
  m_RootOrder: 0
  m_LocalEulerAnglesHint: {x: 0, y: 0, z: 0}
--- !u!212 &5237697896198751018
SpriteRenderer:
  m_ObjectHideFlags: 0
  m_CorrespondingSourceObject: {fileID: 0}
  m_PrefabInstance: {fileID: 0}
  m_PrefabAsset: {fileID: 0}
  m_GameObject: {fileID: 3453134041058585862}
  m_Enabled: 1
  m_CastShadows: 0
  m_ReceiveShadows: 0
  m_DynamicOccludee: 1
  m_StaticShadowCaster: 0
  m_MotionVectors: 1
  m_LightProbeUsage: 1
  m_ReflectionProbeUsage: 1
  m_RayTracingMode: 0
  m_RayTraceProcedural: 0
  m_RenderingLayerMask: 1
  m_RendererPriority: 0
  m_Materials:
  - {fileID: 2100000, guid: a97c105638bdf8b4a8650670310a4cd3, type: 2}
  m_StaticBatchInfo:
    firstSubMesh: 0
    subMeshCount: 0
  m_StaticBatchRoot: {fileID: 0}
  m_ProbeAnchor: {fileID: 0}
  m_LightProbeVolumeOverride: {fileID: 0}
  m_ScaleInLightmap: 1
  m_ReceiveGI: 1
  m_PreserveUVs: 0
  m_IgnoreNormalsForChartDetection: 0
  m_ImportantGI: 0
  m_StitchLightmapSeams: 1
  m_SelectedEditorRenderState: 0
  m_MinimumChartSize: 4
  m_AutoUVMaxDistance: 0.5
  m_AutoUVMaxAngle: 89
  m_LightmapParameters: {fileID: 0}
  m_SortingLayerID: 0
  m_SortingLayer: 0
  m_SortingOrder: 0
  m_Sprite: {fileID: 0}
  m_Color: {r: 1, g: 1, b: 1, a: 1}
  m_FlipX: 0
  m_FlipY: 0
  m_DrawMode: 0
  m_Size: {x: 1, y: 1}
  m_AdaptiveModeThreshold: 0.5
  m_SpriteTileMode: 0
  m_WasSpriteAssigned: 0
  m_MaskInteraction: 0
  m_SpriteSortPoint: 0
--- !u!61 &8633488728181342227
BoxCollider2D:
  m_ObjectHideFlags: 0
  m_CorrespondingSourceObject: {fileID: 0}
  m_PrefabInstance: {fileID: 0}
  m_PrefabAsset: {fileID: 0}
  m_GameObject: {fileID: 3453134041058585862}
  m_Enabled: 1
  m_Density: 1
  m_Material: {fileID: 0}
  m_IncludeLayers:
    serializedVersion: 2
    m_Bits: 0
  m_ExcludeLayers:
    serializedVersion: 2
    m_Bits: 0
  m_LayerOverridePriority: 0
  m_ForceSendLayers:
    serializedVersion: 2
    m_Bits: 4294967295
  m_ForceReceiveLayers:
    serializedVersion: 2
    m_Bits: 4294967295
  m_ContactCaptureLayers:
    serializedVersion: 2
    m_Bits: 4294967295
  m_CallbackLayers:
    serializedVersion: 2
    m_Bits: 4294967295
  m_IsTrigger: 0
  m_UsedByEffector: 0
  m_UsedByComposite: 0
  m_Offset: {x: 0, y: 0}
  m_SpriteTilingProperty:
    border: {x: 0, y: 0, z: 0, w: 0}
    pivot: {x: 0.5, y: 0.5}
    oldSize: {x: 1, y: 1}
    newSize: {x: 1, y: 1}
    adaptiveTilingThreshold: 0.5
    drawMode: 0
    adaptiveTiling: 0
  m_AutoTiling: 0
  serializedVersion: 2
  m_Size: {x: 1, y: 1}
  m_EdgeRadius: 0
--- !u!114 &-628128730671719249
MonoBehaviour:
  m_ObjectHideFlags: 0
  m_CorrespondingSourceObject: {fileID: 0}
  m_PrefabInstance: {fileID: 0}
  m_PrefabAsset: {fileID: 0}
  m_GameObject: {fileID: 3453134041058585862}
  m_Enabled: 1
  m_EditorHideFlags: 0
  m_Script: {fileID: 11500000, guid: 00ee3cff247727b4c9dce47ced6fe263, type: 3}
  m_Name: 
  m_EditorClassIdentifier: 
  m_CofreController: {fileID: 0}
  m_ItemSlots:
  - Item: {fileID: 0}
    Amount: 0
  - Item: {fileID: 0}
    Amount: 0
  - Item: {fileID: 0}
    Amount: 0
  - Item: {fileID: 0}
    Amount: 0
  - Item: {fileID: 0}
    Amount: 0
  - Item: {fileID: 0}
    Amount: 0
  - Item: {fileID: 0}
    Amount: 0
  - Item: {fileID: 0}
    Amount: 0
  - Item: {fileID: 0}
    Amount: 0
  - Item: {fileID: 0}
    Amount: 0
  - Item: {fileID: 0}
    Amount: 0
  - Item: {fileID: 0}
    Amount: 0
  - Item: {fileID: 0}
    Amount: 0
  - Item: {fileID: 0}
    Amount: 0
  - Item: {fileID: 0}
    Amount: 0
  - Item: {fileID: 0}
    Amount: 0
  - Item: {fileID: 0}
    Amount: 0
  - Item: {fileID: 0}
    Amount: 0
  - Item: {fileID: 0}
    Amount: 0
  - Item: {fileID: 0}
    Amount: 0
  - Item: {fileID: 0}
    Amount: 0
  - Item: {fileID: 0}
    Amount: 0
  - Item: {fileID: 0}
    Amount: 0
  - Item: {fileID: 0}
    Amount: 0
  - Item: {fileID: 0}
    Amount: 0
  - Item: {fileID: 0}
    Amount: 0
  - Item: {fileID: 0}
    Amount: 0
  - Item: {fileID: 0}
    Amount: 0
  - Item: {fileID: 0}
    Amount: 0
  - Item: {fileID: 0}
    Amount: 0
  - Item: {fileID: 0}
    Amount: 0
  - Item: {fileID: 0}
    Amount: 0
  - Item: {fileID: 0}
    Amount: 0
  - Item: {fileID: 0}
    Amount: 0
  - Item: {fileID: 0}
    Amount: 0
  - Item: {fileID: 0}
    Amount: 0
--- !u!114 &242002268098129628
MonoBehaviour:
  m_ObjectHideFlags: 0
  m_CorrespondingSourceObject: {fileID: 0}
  m_PrefabInstance: {fileID: 0}
  m_PrefabAsset: {fileID: 0}
  m_GameObject: {fileID: 3453134041058585862}
  m_Enabled: 1
  m_EditorHideFlags: 0
  m_Script: {fileID: 11500000, guid: dfd5d1c923eb2e841b1da699f8e059ea, type: 3}
  m_Name: 
  m_EditorClassIdentifier: 
  map: {fileID: 11400000, guid: 2a7a266f31f05f340ad74cb2d55d88b6, type: 2}
  farm: {fileID: 11400000, guid: f654bcad6d07d60449e664087d135b56, type: 2}
