%YAML 1.1
%TAG !u! tag:unity3d.com,2011:
--- !u!114 &11400000
MonoBehaviour:
  m_ObjectHideFlags: 0
  m_CorrespondingSourceObject: {fileID: 0}
  m_PrefabInstance: {fileID: 0}
  m_PrefabAsset: {fileID: 0}
  m_GameObject: {fileID: 0}
  m_Enabled: 1
  m_EditorHideFlags: 0
  m_Script: {fileID: 11500000, guid: eaeb98d12e2bc7a498ab5641a3e5f9c2, type: 3}
  m_Name: VacaZombie
  m_EditorClassIdentifier: 
  name: Vaca Zombie
  speed: 3
  hp: 100
  drops:
  - {fileID: 11400000, guid: be7750147495efb4ab47e92ecaebc763, type: 2}
  meatTime: 5
  carneZombie: {fileID: 11400000, guid: 0f1b0ee4d3034b74eb9d8d70a27d6d19, type: 2}
